…
``` r
uoe_art %>%
  count(artist) %>%
  arrange(desc(n))
```

    ## # A tibble: 1,091 x 2
    ##    artist               n
    ##    <chr>            <int>
    ##  1 Unknown            350
    ##  2 Emma Gillies       148
    ##  3 <NA>               115
    ##  4 John Bellany        22
    ##  5 Ann F Ward          19
    ##  6 Boris Bucan         17
    ##  7 Marjorie Wallace    17
    ##  8 Gordon Bryce        16
    ##  9 William Gillon      16
    ## 10 Zygmunt Bukowski    16
    ## # ... with 1,081 more rows
…
